"Source:","C:\Users\Sanele\Documents\2021\kicad\proj.sch"
"Date:","2021/06/12 21:30:35"
"Tool:","Eeschema (5.1.10)-1"
"Component Count:","48"
"Ref","Value","Footprint","Datasheet","Manufacturer","Vendor"
"C1","100n","Capacitor_SMD:C_0603_1608Metric","~","",""
"C2","100n","Capacitor_SMD:C_0603_1608Metric","~","",""
"C3","22u","Capacitor_SMD:CP_Elec_4x3","~","",""
"C4","0.01u","Capacitor_SMD:C_0603_1608Metric","~","",""
"C5","22u","Capacitor_SMD:CP_Elec_4x3","~","",""
"C6","10u","Capacitor_SMD:CP_Elec_4x3","~","",""
"C7","10u","Capacitor_SMD:CP_Elec_4x3","~","",""
"C8","100u","Capacitor_SMD:CP_Elec_4x3","~","",""
"D1","D","Diode_SMD:D_0201_0603Metric","~","",""
"D2","D","Diode_SMD:D_0201_0603Metric","~","",""
"D3","D","Diode_SMD:D_0201_0603Metric","~","",""
"D4","D","Diode_SMD:D_0201_0603Metric","~","",""
"D5","D","Diode_SMD:D_0201_0603Metric","~","",""
"D6","D","Diode_SMD:D_0201_0603Metric","~","",""
"D7","D","Diode_SMD:D_0201_0603Metric","~","",""
"D8","D","Diode_SMD:D_0201_0603Metric","~","",""
"D9","BAT54W","Package_TO_SOT_SMD:SOT-323_SC-70","https://assets.nexperia.com/documents/data-sheet/BAT54W_SER.pdf","",""
"D10","LED","LED_SMD:LED_0201_0603Metric","~","",""
"D11","D","Diode_SMD:D_0201_0603Metric","~","",""
"D12","LED","LED_SMD:LED_0201_0603Metric","~","",""
"D13","LED","LED_SMD:LED_0201_0603Metric","~","",""
"D14","LED","LED_SMD:LED_0201_0603Metric","~","",""
"D15","LED","LED_SMD:LED_0201_0603Metric","~","",""
"H1","MountingHole_Pad","MountingHole:MountingHole_2.5mm_Pad_Via","~","",""
"H2","MountingHole_Pad","MountingHole:MountingHole_2.5mm_Pad_Via","~","",""
"H3","MountingHole_Pad","MountingHole:MountingHole_2.5mm_Pad_Via","~","",""
"H4","MountingHole_Pad","MountingHole:MountingHole_2.5mm_Pad_Via","~","",""
"J1","+5V","Connector_PinHeader_1.27mm:PinHeader_1x01_P1.27mm_Vertical","~","",""
"J2","Inputs","Connector_PinHeader_1.27mm:PinHeader_1x07_P1.27mm_Vertical","~","",""
"J3","M2","Connector_PinHeader_1.27mm:PinHeader_1x06_P1.27mm_Vertical","~","",""
"J4","M1","Connector_PinHeader_1.27mm:PinHeader_1x06_P1.27mm_Vertical","~","",""
"J5","Output","Connector_PinHeader_1.27mm:PinHeader_1x04_P1.27mm_Vertical","~","",""
"L1","22u","Inductor_SMD:L_0201_0603Metric","~","",""
"R1","5k","Resistor_SMD:R_0201_0603Metric","~","",""
"R2","215k","Resistor_SMD:R_0201_0603Metric","~","",""
"R3","24.9k","Resistor_SMD:R_0201_0603Metric","~","",""
"R4","1k","Resistor_SMD:R_0201_0603Metric","~","",""
"R5","1k","Resistor_SMD:R_0201_0603Metric","~","",""
"R6","1k","Resistor_SMD:R_0201_0603Metric","~","",""
"R7","120","Resistor_SMD:R_0201_0603Metric","~","",""
"R8","190","Resistor_SMD:R_0201_0603Metric","~","",""
"U1","L293D","Package_DIP:DIP-16_W7.62mm","http://www.ti.com/lit/ds/symlink/l293.pdf","",""
"U2","LT1373CS8","Package_SO:SOP-8_3.9x4.9mm_P1.27mm","https://www.analog.com/media/en/technical-documentation/data-sheets/1373fbs.pdf","",""
"U3","LM741","Package_SO:SOP-8_3.9x4.9mm_P1.27mm","http://www.ti.com/lit/ds/symlink/lm741.pdf","",""
"U4","LT1117-3.3","Package_TO_SOT_SMD:SOT-223-3_TabPin2","https://www.analog.com/media/en/technical-documentation/data-sheets/1117fd.pdf","",""
"U5","LM741","Package_SO:SOP-8_3.9x4.9mm_P1.27mm","http://www.ti.com/lit/ds/symlink/lm741.pdf","",""
"U6","LM741","Package_SO:SOP-8_3.9x4.9mm_P1.27mm","http://www.ti.com/lit/ds/symlink/lm741.pdf","",""
"U7","LM741","Package_SO:SOP-8_3.9x4.9mm_P1.27mm","http://www.ti.com/lit/ds/symlink/lm741.pdf","",""
