EESchema Schematic File Version 4
LIBS:proj-cache
EELAYER 29 0
EELAYER END
$Descr A4 11693 8268
encoding utf-8
Sheet 1 1
Title ""
Date ""
Rev ""
Comp ""
Comment1 ""
Comment2 ""
Comment3 ""
Comment4 ""
$EndDescr
Wire Wire Line
	3250 1500 2900 1500
Wire Wire Line
	3750 1500 3550 1500
Wire Wire Line
	3750 1700 3750 1500
$Comp
L power:GND #PWR01
U 1 1 60D16C01
P 3750 1700
F 0 "#PWR01" H 3750 1450 50  0001 C CNN
F 1 "GND" H 3755 1527 50  0000 C CNN
F 2 "" H 3750 1700 50  0001 C CNN
F 3 "" H 3750 1700 50  0001 C CNN
	1    3750 1700
	1    0    0    -1  
$EndComp
$Comp
L Device:R R4
U 1 1 60D16691
P 3400 1500
F 0 "R4" V 3193 1500 50  0000 C CNN
F 1 "1k" V 3284 1500 50  0000 C CNN
F 2 "Resistor_SMD:R_0201_0603Metric" V 3330 1500 50  0001 C CNN
F 3 "~" H 3400 1500 50  0001 C CNN
	1    3400 1500
	0    1    1    0   
$EndComp
$Comp
L Device:LED D10
U 1 1 60D13A46
P 2750 1500
F 0 "D10" H 2743 1245 50  0000 C CNN
F 1 "LED" H 2743 1336 50  0000 C CNN
F 2 "LED_SMD:LED_0201_0603Metric" H 2750 1500 50  0001 C CNN
F 3 "~" H 2750 1500 50  0001 C CNN
	1    2750 1500
	-1   0    0    1   
$EndComp
$Comp
L Connector:Conn_01x01_Male J1
U 1 1 60D04A1E
P 1750 1500
F 0 "J1" H 1858 1681 50  0000 C CNN
F 1 "+5V" H 1858 1590 50  0000 C CNN
F 2 "Connector_PinHeader_1.27mm:PinHeader_1x01_P1.27mm_Vertical" H 1750 1500 50  0001 C CNN
F 3 "~" H 1750 1500 50  0001 C CNN
	1    1750 1500
	1    0    0    -1  
$EndComp
Wire Wire Line
	8950 4050 8950 4300
Wire Wire Line
	9250 4050 8950 4050
Text GLabel 9250 4050 2    50   Output ~ 0
M2A
Wire Wire Line
	5050 3900 5050 4250
Wire Wire Line
	5050 3900 5400 3900
Text GLabel 5400 3900 2    50   Output ~ 0
M1A
Connection ~ 5050 3900
Wire Wire Line
	5050 3800 5050 3900
Connection ~ 8950 4050
Wire Wire Line
	8950 3950 8950 4050
Wire Wire Line
	8400 4200 8400 4300
Wire Wire Line
	7850 4200 8400 4200
Connection ~ 8400 4200
Wire Wire Line
	8400 3950 8400 4200
$Comp
L Device:LED D14
U 1 1 60C350F5
P 8550 3950
F 0 "D14" H 8543 3695 50  0000 C CNN
F 1 "LED" H 8543 3786 50  0000 C CNN
F 2 "LED_SMD:LED_0201_0603Metric" H 8550 3950 50  0001 C CNN
F 3 "~" H 8550 3950 50  0001 C CNN
	1    8550 3950
	-1   0    0    1   
$EndComp
$Comp
L Device:LED D15
U 1 1 60C350FB
P 8550 4300
F 0 "D15" H 8543 4516 50  0000 C CNN
F 1 "LED" H 8543 4425 50  0000 C CNN
F 2 "LED_SMD:LED_0201_0603Metric" H 8550 4300 50  0001 C CNN
F 3 "~" H 8550 4300 50  0001 C CNN
	1    8550 4300
	1    0    0    -1  
$EndComp
Wire Wire Line
	8700 3950 8950 3950
Wire Wire Line
	8950 4300 8700 4300
$Comp
L Device:R R6
U 1 1 60C350EF
P 7700 4200
F 0 "R6" V 7493 4200 50  0000 C CNN
F 1 "1k" V 7584 4200 50  0000 C CNN
F 2 "Resistor_SMD:R_0201_0603Metric" V 7630 4200 50  0001 C CNN
F 3 "~" H 7700 4200 50  0001 C CNN
	1    7700 4200
	0    1    1    0   
$EndComp
Wire Wire Line
	5050 4250 4800 4250
Wire Wire Line
	4800 3800 5050 3800
Wire Wire Line
	4500 4000 4500 4250
Wire Wire Line
	4200 4300 4000 4300
Wire Wire Line
	4200 4000 4200 4300
Wire Wire Line
	4500 4000 4200 4000
Connection ~ 4500 4000
Wire Wire Line
	4500 3800 4500 4000
$Comp
L Device:LED D13
U 1 1 60C1FB0D
P 4650 4250
F 0 "D13" H 4643 4466 50  0000 C CNN
F 1 "LED" H 4643 4375 50  0000 C CNN
F 2 "LED_SMD:LED_0201_0603Metric" H 4650 4250 50  0001 C CNN
F 3 "~" H 4650 4250 50  0001 C CNN
	1    4650 4250
	1    0    0    -1  
$EndComp
$Comp
L Device:LED D12
U 1 1 60C1EFBB
P 4650 3800
F 0 "D12" H 4643 3545 50  0000 C CNN
F 1 "LED" H 4643 3636 50  0000 C CNN
F 2 "LED_SMD:LED_0201_0603Metric" H 4650 3800 50  0001 C CNN
F 3 "~" H 4650 3800 50  0001 C CNN
	1    4650 3800
	-1   0    0    1   
$EndComp
$Comp
L Device:R R5
U 1 1 60C1C774
P 3850 4300
F 0 "R5" V 3643 4300 50  0000 C CNN
F 1 "1k" V 3734 4300 50  0000 C CNN
F 2 "Resistor_SMD:R_0201_0603Metric" V 3780 4300 50  0001 C CNN
F 3 "~" H 3850 4300 50  0001 C CNN
	1    3850 4300
	0    1    1    0   
$EndComp
Wire Wire Line
	1950 1500 2600 1500
$EndSCHEMATC
