EESchema Schematic File Version 4
LIBS:proj-cache
EELAYER 29 0
EELAYER END
$Descr A4 11693 8268
encoding utf-8
Sheet 1 1
Title ""
Date ""
Rev ""
Comp ""
Comment1 ""
Comment2 ""
Comment3 ""
Comment4 ""
$EndDescr
Wire Wire Line
	6500 3300 6500 3600
Wire Wire Line
	6400 3300 6400 3600
Wire Wire Line
	6400 3600 6500 3600
Connection ~ 6500 3600
Wire Wire Line
	6200 3300 6200 3600
Wire Wire Line
	6200 3600 6400 3600
Connection ~ 6400 3600
Wire Wire Line
	6100 3300 6100 3600
Wire Wire Line
	6100 3600 6200 3600
Connection ~ 6200 3600
Wire Wire Line
	6200 1500 6200 1100
$Comp
L Driver_Motor:L293D U1
U 1 1 609E11D1
P 6300 2500
F 0 "U1" H 6300 3681 50  0000 C CNN
F 1 "L293D" H 6300 3590 50  0000 C CNN
F 2 "Package_DIP:DIP-16_W7.62mm" H 6550 1750 50  0001 L CNN
F 3 "http://www.ti.com/lit/ds/symlink/l293.pdf" H 6000 3200 50  0001 C CNN
	1    6300 2500
	1    0    0    -1  
$EndComp
Text Label 7150 1650 0    50   ~ 0
V1
Wire Wire Line
	6400 1500 6400 1150
$Comp
L Device:C C2
U 1 1 60A0326F
P 6750 1300
F 0 "C2" H 6865 1346 50  0000 L CNN
F 1 "100n" H 6865 1255 50  0000 L CNN
F 2 "Capacitor_SMD:C_0603_1608Metric" H 6788 1150 50  0001 C CNN
F 3 "~" H 6750 1300 50  0001 C CNN
	1    6750 1300
	1    0    0    -1  
$EndComp
$Comp
L Device:C C1
U 1 1 60A03A78
P 5700 1250
F 0 "C1" H 5815 1296 50  0000 L CNN
F 1 "100n" H 5815 1205 50  0000 L CNN
F 2 "Capacitor_SMD:C_0603_1608Metric" H 5738 1100 50  0001 C CNN
F 3 "~" H 5700 1250 50  0001 C CNN
	1    5700 1250
	1    0    0    -1  
$EndComp
$Comp
L power:GND #PWR011
U 1 1 60A0402B
P 6750 1450
F 0 "#PWR011" H 6750 1200 50  0001 C CNN
F 1 "GND" H 6755 1277 50  0000 C CNN
F 2 "" H 6750 1450 50  0001 C CNN
F 3 "" H 6750 1450 50  0001 C CNN
	1    6750 1450
	1    0    0    -1  
$EndComp
$Comp
L power:GND #PWR010
U 1 1 60A044CC
P 5700 1400
F 0 "#PWR010" H 5700 1150 50  0001 C CNN
F 1 "GND" H 5705 1227 50  0000 C CNN
F 2 "" H 5700 1400 50  0001 C CNN
F 3 "" H 5700 1400 50  0001 C CNN
	1    5700 1400
	1    0    0    -1  
$EndComp
Wire Wire Line
	6750 1150 6400 1150
Wire Wire Line
	5700 1100 6200 1100
Wire Wire Line
	6800 1900 6950 1900
Wire Wire Line
	6950 2800 6950 1900
Connection ~ 6950 1900
Wire Wire Line
	6950 1900 6950 1650
$Comp
L power:GND #PWR012
U 1 1 60A2434C
P 6950 3100
F 0 "#PWR012" H 6950 2850 50  0001 C CNN
F 1 "GND" H 6955 2927 50  0000 C CNN
F 2 "" H 6950 3100 50  0001 C CNN
F 3 "" H 6950 3100 50  0001 C CNN
	1    6950 3100
	1    0    0    -1  
$EndComp
$Comp
L power:GND #PWR013
U 1 1 60A248F7
P 7200 3100
F 0 "#PWR013" H 7200 2850 50  0001 C CNN
F 1 "GND" H 7205 2927 50  0000 C CNN
F 2 "" H 7200 3100 50  0001 C CNN
F 3 "" H 7200 3100 50  0001 C CNN
	1    7200 3100
	1    0    0    -1  
$EndComp
Wire Wire Line
	6950 1350 6950 1150
Wire Wire Line
	6950 1150 6750 1150
Connection ~ 6750 1150
Wire Wire Line
	6950 1150 7200 1150
Wire Wire Line
	7700 1150 7700 1350
Connection ~ 6950 1150
Wire Wire Line
	7450 1350 7450 1150
Connection ~ 7450 1150
Wire Wire Line
	7450 1150 7700 1150
Wire Wire Line
	7200 1350 7200 1150
Connection ~ 7200 1150
Wire Wire Line
	7200 1150 7450 1150
$Comp
L power:GND #PWR09
U 1 1 609E7632
P 6500 4000
F 0 "#PWR09" H 6500 3750 50  0001 C CNN
F 1 "GND" H 6505 3827 50  0000 C CNN
F 2 "" H 6500 4000 50  0001 C CNN
F 3 "" H 6500 4000 50  0001 C CNN
	1    6500 4000
	1    0    0    -1  
$EndComp
Wire Wire Line
	6500 3600 6500 4000
$Comp
L Device:D D4
U 1 1 60A1C914
P 7200 2950
F 0 "D4" V 7154 3029 50  0000 L CNN
F 1 "D" V 7245 3029 50  0000 L CNN
F 2 "Diode_SMD:D_0201_0603Metric" H 7200 2950 50  0001 C CNN
F 3 "~" H 7200 2950 50  0001 C CNN
	1    7200 2950
	0    1    1    0   
$EndComp
$Comp
L Device:D D2
U 1 1 60A09C5E
P 6950 2950
F 0 "D2" V 6904 3029 50  0000 L CNN
F 1 "D" V 6995 3029 50  0000 L CNN
F 2 "Diode_SMD:D_0201_0603Metric" H 6950 2950 50  0001 C CNN
F 3 "~" H 6950 2950 50  0001 C CNN
	1    6950 2950
	0    1    1    0   
$EndComp
$Comp
L Device:D D5
U 1 1 60A05CE1
P 7450 1500
F 0 "D5" V 7404 1579 50  0000 L CNN
F 1 "D" V 7495 1579 50  0000 L CNN
F 2 "Diode_SMD:D_0201_0603Metric" H 7450 1500 50  0001 C CNN
F 3 "~" H 7450 1500 50  0001 C CNN
	1    7450 1500
	0    1    1    0   
$EndComp
$Comp
L Device:D D3
U 1 1 60A06225
P 7200 1500
F 0 "D3" V 7154 1579 50  0000 L CNN
F 1 "D" V 7245 1579 50  0000 L CNN
F 2 "Diode_SMD:D_0201_0603Metric" H 7200 1500 50  0001 C CNN
F 3 "~" H 7200 1500 50  0001 C CNN
	1    7200 1500
	0    1    1    0   
$EndComp
$Comp
L Device:D D1
U 1 1 60A064BD
P 6950 1500
F 0 "D1" V 6904 1579 50  0000 L CNN
F 1 "D" V 6995 1579 50  0000 L CNN
F 2 "Diode_SMD:D_0201_0603Metric" H 6950 1500 50  0001 C CNN
F 3 "~" H 6950 1500 50  0001 C CNN
	1    6950 1500
	0    1    1    0   
$EndComp
Wire Wire Line
	7450 2500 7450 1650
Connection ~ 7450 2500
Wire Wire Line
	6800 2500 7450 2500
Wire Wire Line
	7450 2800 7450 2500
$Comp
L power:GND #PWR015
U 1 1 60A250BA
P 7700 3100
F 0 "#PWR015" H 7700 2850 50  0001 C CNN
F 1 "GND" H 7705 2927 50  0000 C CNN
F 2 "" H 7700 3100 50  0001 C CNN
F 3 "" H 7700 3100 50  0001 C CNN
	1    7700 3100
	1    0    0    -1  
$EndComp
$Comp
L Device:D D8
U 1 1 60A1D697
P 7700 2950
F 0 "D8" V 7654 3029 50  0000 L CNN
F 1 "D" V 7745 3029 50  0000 L CNN
F 2 "Diode_SMD:D_0201_0603Metric" H 7700 2950 50  0001 C CNN
F 3 "~" H 7700 2950 50  0001 C CNN
	1    7700 2950
	0    1    1    0   
$EndComp
Connection ~ 6400 1150
Wire Wire Line
	6400 1150 6400 950 
Text GLabel 6400 950  1    50   Input ~ 0
Vmotor
Text GLabel 4200 1700 2    50   Input ~ 0
Vmotor
$Comp
L Regulator_Switching:LT1373CS8 U2
U 1 1 60BCC2F9
P 1550 2450
F 0 "U2" H 1550 3031 50  0000 C CNN
F 1 "LT1373CS8" H 1550 2940 50  0000 C CNN
F 2 "Package_SO:SOP-8_3.9x4.9mm_P1.27mm" H 1600 2200 50  0001 L CNN
F 3 "https://www.analog.com/media/en/technical-documentation/data-sheets/1373fbs.pdf" H 1650 2450 50  0001 C CNN
	1    1550 2450
	1    0    0    -1  
$EndComp
$Comp
L Device:R R2
U 1 1 60BD5CCA
P 2900 2050
F 0 "R2" H 2970 2096 50  0000 L CNN
F 1 "215k" H 2970 2005 50  0000 L CNN
F 2 "Resistor_SMD:R_0201_0603Metric" V 2830 2050 50  0001 C CNN
F 3 "~" H 2900 2050 50  0001 C CNN
	1    2900 2050
	1    0    0    -1  
$EndComp
$Comp
L Device:R R3
U 1 1 60BD71B3
P 2900 2700
F 0 "R3" H 2970 2746 50  0000 L CNN
F 1 "24.9k" H 2970 2655 50  0000 L CNN
F 2 "Resistor_SMD:R_0201_0603Metric" V 2830 2700 50  0001 C CNN
F 3 "~" H 2900 2700 50  0001 C CNN
	1    2900 2700
	1    0    0    -1  
$EndComp
$Comp
L Diode:BAT54W D9
U 1 1 60BD82E3
P 2500 1700
F 0 "D9" H 2500 1475 50  0000 C CNN
F 1 "BAT54W" H 2500 1566 50  0000 C CNN
F 2 "Package_TO_SOT_SMD:SOT-323_SC-70" H 2500 1525 50  0001 C CNN
F 3 "https://assets.nexperia.com/documents/data-sheet/BAT54W_SER.pdf" H 2500 1700 50  0001 C CNN
	1    2500 1700
	-1   0    0    1   
$EndComp
$Comp
L Device:CP1 C5
U 1 1 60BDA854
P 3700 2300
F 0 "C5" H 3815 2346 50  0000 L CNN
F 1 "22u" H 3815 2255 50  0000 L CNN
F 2 "Capacitor_SMD:CP_Elec_4x3" H 3700 2300 50  0001 C CNN
F 3 "~" H 3700 2300 50  0001 C CNN
	1    3700 2300
	1    0    0    -1  
$EndComp
$Comp
L Device:CP1 C3
U 1 1 60BDC8D8
P 700 2350
F 0 "C3" H 815 2396 50  0000 L CNN
F 1 "22u" H 815 2305 50  0000 L CNN
F 2 "Capacitor_SMD:CP_Elec_4x3" H 700 2350 50  0001 C CNN
F 3 "~" H 700 2350 50  0001 C CNN
	1    700  2350
	1    0    0    -1  
$EndComp
$Comp
L Device:L L1
U 1 1 60BDD727
P 1950 1700
F 0 "L1" V 2140 1700 50  0000 C CNN
F 1 "22u" V 2049 1700 50  0000 C CNN
F 2 "Inductor_SMD:L_0201_0603Metric" H 1950 1700 50  0001 C CNN
F 3 "~" H 1950 1700 50  0001 C CNN
	1    1950 1700
	0    -1   -1   0   
$EndComp
$Comp
L Device:C C4
U 1 1 60BDEAF8
P 2100 2700
F 0 "C4" H 2215 2746 50  0000 L CNN
F 1 "0.01u" H 2215 2655 50  0000 L CNN
F 2 "Capacitor_SMD:C_0603_1608Metric" H 2138 2550 50  0001 C CNN
F 3 "~" H 2100 2700 50  0001 C CNN
	1    2100 2700
	1    0    0    -1  
$EndComp
$Comp
L Device:R R1
U 1 1 60BE0B47
P 2100 3200
F 0 "R1" H 2170 3246 50  0000 L CNN
F 1 "5k" H 2170 3155 50  0000 L CNN
F 2 "Resistor_SMD:R_0201_0603Metric" V 2030 3200 50  0001 C CNN
F 3 "~" H 2100 3200 50  0001 C CNN
	1    2100 3200
	1    0    0    -1  
$EndComp
$Comp
L power:GND #PWR08
U 1 1 60BE157D
P 1450 3350
F 0 "#PWR08" H 1450 3100 50  0001 C CNN
F 1 "GND" H 1455 3177 50  0000 C CNN
F 2 "" H 1450 3350 50  0001 C CNN
F 3 "" H 1450 3350 50  0001 C CNN
	1    1450 3350
	1    0    0    -1  
$EndComp
Wire Wire Line
	700  1700 1550 1700
Wire Wire Line
	700  1700 700  2200
Wire Wire Line
	2100 1700 2200 1700
Wire Wire Line
	2650 1700 2900 1700
Wire Wire Line
	3700 1700 3700 2150
Wire Wire Line
	2900 1700 2900 1900
Connection ~ 2900 1700
Wire Wire Line
	2900 1700 3700 1700
Wire Wire Line
	2900 2200 2900 2350
Wire Wire Line
	1950 2350 2900 2350
Connection ~ 2900 2350
Wire Wire Line
	2900 2350 2900 2550
Wire Wire Line
	1550 2050 1550 1700
Connection ~ 1550 1700
Wire Wire Line
	1550 1700 1800 1700
Wire Wire Line
	1950 2250 2200 2250
Wire Wire Line
	2200 2250 2200 1700
Connection ~ 2200 1700
Wire Wire Line
	2200 1700 2350 1700
Wire Wire Line
	2100 2550 1950 2550
Wire Wire Line
	2100 2850 2100 3050
Wire Wire Line
	2100 3350 1450 3350
Wire Wire Line
	700  2500 700  3350
Wire Wire Line
	700  3350 1450 3350
Connection ~ 1450 3350
Wire Wire Line
	2900 2850 2900 3350
Wire Wire Line
	2900 3350 2100 3350
Connection ~ 2100 3350
Wire Wire Line
	3700 2450 3700 3350
Wire Wire Line
	3700 3350 2900 3350
Connection ~ 2900 3350
Wire Wire Line
	3700 1700 4200 1700
Connection ~ 3700 1700
Wire Wire Line
	1450 2750 1450 3350
Wire Wire Line
	1550 1400 1550 1700
$Comp
L Device:R R5
U 1 1 60C1C774
P 8200 1900
F 0 "R5" V 7993 1900 50  0000 C CNN
F 1 "1k" V 8084 1900 50  0000 C CNN
F 2 "Resistor_SMD:R_0201_0603Metric" V 8130 1900 50  0001 C CNN
F 3 "~" H 8200 1900 50  0001 C CNN
	1    8200 1900
	0    1    1    0   
$EndComp
$Comp
L Device:LED D12
U 1 1 60C1EFBB
P 9000 1400
F 0 "D12" H 8993 1145 50  0000 C CNN
F 1 "LED" H 8993 1236 50  0000 C CNN
F 2 "LED_SMD:LED_0201_0603Metric" H 9000 1400 50  0001 C CNN
F 3 "~" H 9000 1400 50  0001 C CNN
	1    9000 1400
	-1   0    0    1   
$EndComp
$Comp
L Device:LED D13
U 1 1 60C1FB0D
P 9000 1850
F 0 "D13" H 8993 2066 50  0000 C CNN
F 1 "LED" H 8993 1975 50  0000 C CNN
F 2 "LED_SMD:LED_0201_0603Metric" H 9000 1850 50  0001 C CNN
F 3 "~" H 9000 1850 50  0001 C CNN
	1    9000 1850
	1    0    0    -1  
$EndComp
Wire Wire Line
	8850 1400 8850 1600
Wire Wire Line
	8850 1600 8550 1600
Wire Wire Line
	8550 1600 8550 1900
Wire Wire Line
	8550 1900 8350 1900
Connection ~ 8850 1600
Wire Wire Line
	8850 1600 8850 1850
Wire Wire Line
	9150 1400 9400 1400
Wire Wire Line
	9400 1850 9150 1850
$Comp
L Device:R R6
U 1 1 60C350EF
P 8250 2500
F 0 "R6" V 8043 2500 50  0000 C CNN
F 1 "1k" V 8134 2500 50  0000 C CNN
F 2 "Resistor_SMD:R_0201_0603Metric" V 8180 2500 50  0001 C CNN
F 3 "~" H 8250 2500 50  0001 C CNN
	1    8250 2500
	0    1    1    0   
$EndComp
Wire Wire Line
	9500 2600 9250 2600
Wire Wire Line
	9250 2250 9500 2250
$Comp
L Device:LED D15
U 1 1 60C350FB
P 9100 2600
F 0 "D15" H 9093 2816 50  0000 C CNN
F 1 "LED" H 9093 2725 50  0000 C CNN
F 2 "LED_SMD:LED_0201_0603Metric" H 9100 2600 50  0001 C CNN
F 3 "~" H 9100 2600 50  0001 C CNN
	1    9100 2600
	1    0    0    -1  
$EndComp
$Comp
L Device:LED D14
U 1 1 60C350F5
P 9100 2250
F 0 "D14" H 9093 1995 50  0000 C CNN
F 1 "LED" H 9093 2086 50  0000 C CNN
F 2 "LED_SMD:LED_0201_0603Metric" H 9100 2250 50  0001 C CNN
F 3 "~" H 9100 2250 50  0001 C CNN
	1    9100 2250
	-1   0    0    1   
$EndComp
Wire Wire Line
	8950 2250 8950 2500
Wire Wire Line
	8400 2500 8950 2500
Connection ~ 8950 2500
Wire Wire Line
	8950 2500 8950 2600
Wire Wire Line
	9500 2250 9500 2350
Wire Wire Line
	9400 1400 9400 1500
Text GLabel 9750 1500 2    50   Output ~ 0
M1A
Wire Wire Line
	9400 1500 9750 1500
Connection ~ 9400 1500
Wire Wire Line
	9400 1500 9400 1850
Text GLabel 7950 2100 2    50   Output ~ 0
M1B
Wire Wire Line
	6800 2100 7200 2100
Text GLabel 8200 2700 2    50   Output ~ 0
M2B
Wire Wire Line
	6800 2700 7700 2700
Text GLabel 9800 2350 2    50   Output ~ 0
M2A
Wire Wire Line
	9800 2350 9500 2350
Connection ~ 9500 2350
Wire Wire Line
	9500 2350 9500 2600
$Comp
L Connector:Conn_01x01_Male J1
U 1 1 60D04A1E
P 800 800
F 0 "J1" H 908 981 50  0000 C CNN
F 1 "+5V" H 908 890 50  0000 C CNN
F 2 "Connector_PinHeader_1.27mm:PinHeader_1x01_P1.27mm_Vertical" H 800 800 50  0001 C CNN
F 3 "~" H 800 800 50  0001 C CNN
	1    800  800 
	1    0    0    -1  
$EndComp
Text GLabel 1200 1300 3    50   Output ~ 0
5V
Text GLabel 1550 1400 1    50   Input ~ 0
5V
$Comp
L Device:LED D10
U 1 1 60D13A46
P 1800 800
F 0 "D10" H 1793 545 50  0000 C CNN
F 1 "LED" H 1793 636 50  0000 C CNN
F 2 "LED_SMD:LED_0201_0603Metric" H 1800 800 50  0001 C CNN
F 3 "~" H 1800 800 50  0001 C CNN
	1    1800 800 
	-1   0    0    1   
$EndComp
$Comp
L Device:R R4
U 1 1 60D16691
P 2450 800
F 0 "R4" V 2243 800 50  0000 C CNN
F 1 "1k" V 2334 800 50  0000 C CNN
F 2 "Resistor_SMD:R_0201_0603Metric" V 2380 800 50  0001 C CNN
F 3 "~" H 2450 800 50  0001 C CNN
	1    2450 800 
	0    1    1    0   
$EndComp
$Comp
L power:GND #PWR01
U 1 1 60D16C01
P 2800 1000
F 0 "#PWR01" H 2800 750 50  0001 C CNN
F 1 "GND" H 2805 827 50  0000 C CNN
F 2 "" H 2800 1000 50  0001 C CNN
F 3 "" H 2800 1000 50  0001 C CNN
	1    2800 1000
	1    0    0    -1  
$EndComp
Wire Wire Line
	1000 800  1200 800 
$Comp
L Device:D D7
U 1 1 60D2A0D0
P 1200 1050
F 0 "D7" V 1246 971 50  0000 R CNN
F 1 "D" V 1155 971 50  0000 R CNN
F 2 "Diode_SMD:D_0201_0603Metric" H 1200 1050 50  0001 C CNN
F 3 "~" H 1200 1050 50  0001 C CNN
	1    1200 1050
	0    -1   -1   0   
$EndComp
Wire Wire Line
	1200 800  1200 900 
Connection ~ 1200 800 
Wire Wire Line
	1200 800  1650 800 
Wire Wire Line
	1200 1200 1200 1300
Wire Wire Line
	2800 1000 2800 800 
Wire Wire Line
	2800 800  2600 800 
Wire Wire Line
	2300 800  1950 800 
Wire Wire Line
	6950 1900 8050 1900
Wire Wire Line
	7200 1650 7200 2100
Connection ~ 7200 2100
Wire Wire Line
	7200 2100 7950 2100
Wire Wire Line
	7200 2800 7200 2100
Wire Wire Line
	7450 2500 8100 2500
$Comp
L Device:D D11
U 1 1 60D4E118
P 7700 1500
F 0 "D11" V 7654 1579 50  0000 L CNN
F 1 "D" V 7745 1579 50  0000 L CNN
F 2 "Diode_SMD:D_0201_0603Metric" H 7700 1500 50  0001 C CNN
F 3 "~" H 7700 1500 50  0001 C CNN
	1    7700 1500
	0    1    1    0   
$EndComp
Wire Wire Line
	7700 1650 7700 2700
Connection ~ 7700 2700
Wire Wire Line
	7700 2700 8200 2700
Wire Wire Line
	7700 2800 7700 2700
Text GLabel 5600 2300 0    50   Input ~ 0
en1
Wire Wire Line
	5800 2300 5600 2300
Text GLabel 5650 2900 0    50   Input ~ 0
en2
Wire Wire Line
	5800 2900 5650 2900
Text GLabel 5650 1900 0    50   Input ~ 0
V1A
Text GLabel 5650 2100 0    50   Input ~ 0
V1B
Text GLabel 5650 2500 0    50   Input ~ 0
V2A
Text GLabel 5650 2700 0    50   Input ~ 0
V2B
Wire Wire Line
	5800 1900 5650 1900
Wire Wire Line
	5800 2100 5650 2100
Wire Wire Line
	5800 2500 5650 2500
Wire Wire Line
	5800 2700 5650 2700
Text GLabel 6200 850  1    50   Input ~ 0
5V
Wire Wire Line
	6200 850  6200 1100
Connection ~ 6200 1100
NoConn ~ 1950 2450
NoConn ~ 1150 2350
NoConn ~ 1550 2750
$Comp
L power:GND #PWR014
U 1 1 60C3F527
P 7450 3100
F 0 "#PWR014" H 7450 2850 50  0001 C CNN
F 1 "GND" H 7455 2927 50  0000 C CNN
F 2 "" H 7450 3100 50  0001 C CNN
F 3 "" H 7450 3100 50  0001 C CNN
	1    7450 3100
	1    0    0    -1  
$EndComp
$Comp
L Device:D D6
U 1 1 60C3F52D
P 7450 2950
F 0 "D6" V 7404 3029 50  0000 L CNN
F 1 "D" V 7495 3029 50  0000 L CNN
F 2 "Diode_SMD:D_0201_0603Metric" H 7450 2950 50  0001 C CNN
F 3 "~" H 7450 2950 50  0001 C CNN
	1    7450 2950
	0    1    1    0   
$EndComp
$EndSCHEMATC
